100
1 8 10 6 5 3 2 3 4 2 3 7 1 1 5 1 4 1 8 1 5 5 6 5 3 7 4 5 5 3 8 7 8 6 8 9 10 7 8 5 8 9 1 3 7 2 6 1 7 7 2 8 1 5 4 2 10 4 9 8 1 10 1 5 9 8 1 9 5 1 5 7 1 6 7 8 8 2 2 3 3 7 2 10 6 3 6 3 5 3 10 4 4 6 9 9 3 2 6 6
4 3 8 4 4 2 4 6 6 3 3 5 8 4 1 6 2 7 6 1 6 10 7 9 2 9 2 9 10 1 1 1 1 7 4 5 3 6 8 6 10 4 3 4 8 6 5 3 1 2 2 4 1 9 1 3 1 9 6 8 9 4 8 8 4 2 1 4 6 2 6 3 4 7 7 7 8 10 7 8 8 6 4 10 10 7 4 5 5 8 3 8 2 8 6 4 5 2 10 2
29056621
